<svg xmlns="http://www.w3.org/2000/svg" viewBox="0 0 5.22 41.37">
    <defs>
        <style>.cls-1{font-size:14px;fill:#d00;font-family:GFSJackson-Regular, GFS Jackson;}</style>
    </defs>
    <g id="Layer_2" data-name="Layer 2">
        <g id="Layer_1-2" data-name="Layer 1">
            <text class="cls-1" transform="translate(0 13.48)">&gt;</text>
            <text/>
        </g>
    </g>
</svg>